<svg xmlns="http://www.w3.org/2000/svg" width="1079.069" height="265.503" viewBox="0 0 1079.069 265.503">
  <g id="Calque_2" data-name="Calque 2" transform="translate(0.002 -0.001)">
    <g id="Calque_1" data-name="Calque 1">
      <path id="Tracé_5" data-name="Tracé 5" d="M29.76.62a34.23,34.23,0,0,0-18.7,9.7A35.07,35.07,0,0,0,.76,30.82c-.6,3.9-.9,44.4-.7,106.8.4,116.1-.6,105.5,10.8,117.1,5,5.1,7.9,7.2,12.3,8.8,5.8,2.1,5.9,2.1,104.5,1.9l98.7-.3,5.5-2.6c7.4-3.5,15.4-11.7,18.2-18.8l2.3-5.6.3-101.5c.2-73.1,0-103.2-.8-107.5a36.58,36.58,0,0,0-22-26.8l-5.5-2.2-95-.1C77.16-.08,32.26.22,29.76.62Zm127.4,60.6a115.72,115.72,0,0,1,14.5,4.6l7.2,3v4.1a24.43,24.43,0,0,1-2,8.5c-4.9,10.8-26.4,38.2-30,38.2a15.16,15.16,0,0,1-5.2-1.9c-15.8-9.4-35.3.6-40.3,20.7-2.8,10.8.8,21.4,10.2,30.3,6.6,6.2,15.9,10.7,23.8,11.4,9.7,1,9.7,1,2.5-17.4-3.5-8.9-6-16.4-5.7-16.7,1.5-1.5,58.1-6.4,59.3-5.1.7.7-8.2,36.6-13.2,53.3l-3.6,12.1-5.3.7c-6.6.7-14.7-.2-16.1-2-.9-1.1-1.9-1-6,.3-7.1,2.2-27,2.3-35.4,0a68,68,0,0,1-32-18.6c-7.2-7-9.5-10.1-12.8-17.1-6.1-12.7-7.5-19.8-7-36.5.4-11.9.9-15.2,3.2-22,9.1-26.7,28.5-43.8,56.6-50.1,8.2-1.8,28.7-1.7,37.3.2Z" fill="#00a9e0"/>
      <path id="Tracé_6" data-name="Tracé 6" d="M357.36,69.72a41.3,41.3,0,0,0-24.7,23.7c-2,5.2-2.2,7.3-2.2,25.2,0,18.2.1,19.9,2.3,25.5,3.4,8.4,14.2,19.3,22.6,22.5a33.29,33.29,0,0,0,26.8-.8c12.9-6,22.1-18.1,23.4-30.5.5-5.3.4-5.8-2.5-8.6l-3-3.1h-33.4l-2.9,2.9c-3.5,3.6-3.7,6-.4,9.5,2.3,2.5,2.7,2.6,14,2.6,13.1,0,13.6.4,9,7.2-3.5,5.2-9.6,7.8-18.1,7.8-10.8-.1-17.4-3.9-20.9-12.2-2.2-5.4-2.2-40.2.1-45.6,4.8-11.7,20-16.5,32.3-10.3,6.3,3.3,11.1,11.1,11.1,18.2,0,3.7,4.5,8.9,7.6,8.9,1.4,0,3.6-1.2,5-2.8,2.2-2.3,2.5-3.4,2.2-7.7-.7-7.9-5.2-16.6-11.9-23C382.86,68.62,369.76,65.32,357.36,69.72Z" fill="#00a9e0"/>
      <path id="Tracé_7" data-name="Tracé 7" d="M686.26,70.72c-2.9,3-2.9,3.2-3.2,15.9-.3,10.3,0,13.5,1.3,16.3.9,1.9,8.9,10.7,17.9,19.6,18.1,17.8,19.4,18.5,24,13,1.4-1.7,2.6-3.8,2.6-4.7s-6.7-8.4-15-16.7l-15-15.1V82.62h17.3c20.8,0,24.5,1.1,27.7,8.2,3.7,8,2.2,15.3-4.4,22-4.4,4.5-4.5,6.6-.5,10.4,9,8.4,9,22.1,0,28.1-2.7,1.8-4.8,2.3-10,2.3h-6.5l-15.1-15c-8.3-8.3-15.6-15-16.2-15s-2.5,1.2-4.2,2.6c-5.6,4.7-4.9,5.9,14.4,25.3l17.5,17.6h8.3c7.4-.1,9.2-.4,15-3.3,11.6-5.7,18.2-15.7,18.2-27.7,0-5.6-.5-8.1-2.7-12.6-1.6-3.1-2.8-6.2-2.8-6.9s1.2-3.7,2.6-6.6c5.9-12.1,3.6-24.3-6.5-34.5-9.1-9.1-12.4-9.9-39.5-9.9h-22.2Z" fill="#00a9e0"/>
      <path id="Tracé_8" data-name="Tracé 8" d="M822.76,70.52c-1.6,1.6-2.9,3.7-2.9,4.6,0,2.1,5.4,7.5,7.5,7.5s7.5-5.4,7.5-7.5-5.4-7.5-7.5-7.5C826.46,67.62,824.36,68.92,822.76,70.52Z" fill="#00a9e0"/>
      <path id="Tracé_9" data-name="Tracé 9" d="M904.26,70.72c-2.9,3-2.9,3.1-3.2,17-.2,7.6-.5,13.9-.7,13.9s-3.3-1.4-7-3.2c-9.6-4.4-18.4-4.4-27.8-.1-9.1,4.3-15,10-19.4,19-3.1,6.3-3.7,8.5-3.7,14.1-.1,11.7,5.6,22.6,15.7,30.2,10.9,8.3,23.3,9.7,35.4,4.1l7-3.2,3.5,3.5c2,2,4.1,3.6,4.8,3.6s2.7-1.5,4.6-3.4l3.4-3.4v-43.6c0-46.6-.1-48-4.9-50.6C908.86,67,907.46,67.42,904.26,70.72Zm-11.7,43.1c6.2,4.1,8.6,9.9,8.2,19.7-.5,9.6-3.4,14.7-10.4,18.1-3.8,1.8-5.9,2.1-12.4,1.9-9.6-.5-14.7-3.4-18.1-10.4-3.2-6.6-2.7-18.4,1.2-24.2,4.1-6.2,9.5-8.5,19.4-8.1C887.26,111.12,889.16,111.52,892.56,113.82Z" fill="#00a9e0"/>
      <path id="Tracé_10" data-name="Tracé 10" d="M440.66,96.52a33.92,33.92,0,0,0-16.5,10.4c-8.6,9.4-12.4,20.4-10.5,30.1a39.52,39.52,0,0,0,20.1,27.4c11.4,6.1,20.9,6.3,32.7.5l5.5-2.7,2.4,3.1c3.7,4.6,6.2,4.8,10.2.8l3.3-3.3v-30.1c0-32.8-.3-34.5-5.5-36.9-3.1-1.4-5.3-.5-8.4,3.5l-2.2,2.6-3.7-2c-4.9-2.8-13.7-5.3-18.1-5.2a39.36,39.36,0,0,0-9.3,1.8Zm21,16c7.1,3.6,10.5,9.7,10.6,19.1,0,8.5-3,15-8.7,18.8s-17.6,4.4-24.2,1.2c-7-3.4-9.9-8.5-10.4-18.1-.2-6.5.1-8.6,1.9-12.4a21,21,0,0,1,13.2-10.6C448.76,109.32,457.36,110.32,461.66,112.52Z" fill="#00a9e0"/>
      <path id="Tracé_11" data-name="Tracé 11" d="M497.76,97.52l-2.9,2.9v31.2c0,19.4.4,31.9,1,33.1a11,11,0,0,0,3.9,3.3c2.5,1.3,3.1,1.3,5.9-.4,1.7-1.1,3.4-3,3.7-4.2s.6-12.1.7-24c.3-20.2.4-21.8,2.4-24.5,4.6-6.2,15.3-6.6,21.1-.8l3.3,3.3v45.4l3.4,3.4c1.9,1.9,3.9,3.4,4.5,3.4s2.5-1.3,4.3-2.9l3.3-2.9.5-23.4c.3-12.8.9-24.1,1.4-25,2.5-5.2,15-7.1,20.4-3.1,4.4,3.3,5.1,7,5.1,29.8.1,17.7.4,21.4,1.7,23.3,2.1,3.1,5.3,4.2,8.2,2.9,4.6-2.1,5.2-5.1,5.2-27,0-24.1-.9-28.1-7.8-35.9-6.4-7-13-10.2-21.2-10.2-6.7,0-10.5,1.4-16.7,6-4,3-4.5,3-9.5-.6-4.2-3.1-12.3-6-16.5-6a39.581,39.581,0,0,0-8.4,2l-6,2.1-2.6-2.1C502.76,93.92,501.26,94.12,497.76,97.52Z" fill="#00a9e0"/>
      <path id="Tracé_12" data-name="Tracé 12" d="M631.56,95.62c-10.5,2.7-21.5,12-26.4,22.5-2.3,5-2.8,7.3-2.8,14,0,9.8,2.9,16.8,10.1,24.6,6,6.3,11.1,9.4,19.3,11.5,5.4,1.3,7.4,1.4,12.5.4,13.3-2.6,24.8-11.6,22.6-17.6-1-2.5-4.7-5.4-6.9-5.4-.8,0-2.8,1.1-4.5,2.4-5.9,4.4-9.3,5.6-16.3,5.6-8.3,0-14.6-2.8-18-7.9-4.2-6.3-4.9-6.1,23.1-6.1h25.4l3.1-2.6c2.6-2.2,3.1-3.3,3.1-7,0-9.4-7.3-22.1-16.2-28.2C651.06,96,639.86,93.52,631.56,95.62Zm13.3,15.1a21.27,21.27,0,0,1,13.6,10,18.424,18.424,0,0,1,1.4,3.4c0,.3-9.2.5-20.5.5-22.9,0-23,0-17.9-6.7a20.7,20.7,0,0,1,12.4-7.4C639,109.52,639.26,109.52,644.86,110.72Z" fill="#00a9e0"/>
      <path id="Tracé_13" data-name="Tracé 13" d="M770.76,97.52l-2.9,2.9v31.4c0,28.1.2,31.5,1.8,33.4,3.8,4.7,8.4,4.8,11.6.2,1.3-1.8,1.6-5.3,1.6-19.3,0-9.3.5-18.6,1-20.6,2.4-8.7,9.2-14.3,18.8-15.5,4.1-.5,5.7-1.3,7.7-3.6,3.2-3.8,3.1-5.3-.5-9-2.9-2.8-3.4-3-8.3-2.4a46.2,46.2,0,0,0-11.5,3.7l-6.2,3-3.4-3.5C776.36,93.82,774.56,93.72,770.76,97.52Z" fill="#00a9e0"/>
      <path id="Tracé_14" data-name="Tracé 14" d="M822.76,97.52l-2.9,2.9v31.2c0,19.3.4,31.9,1,33a10.63,10.63,0,0,0,3.8,3.4c2.3,1.2,3.1,1.2,5.4,0a11.46,11.46,0,0,0,3.8-3.3c.6-1.2,1-13.7,1-33.1v-31.2l-2.9-2.9c-1.6-1.6-3.7-2.9-4.6-2.9S824.36,95.92,822.76,97.52Z" fill="#00a9e0"/>
      <path id="Tracé_15" data-name="Tracé 15" d="M952.86,95.92a41.15,41.15,0,0,0-25.8,21.4c-2.3,5-2.7,7.1-2.7,14.8,0,11.7,2.7,17.7,12,26.3,11.9,11.2,26,13.5,39.7,6.6a42.457,42.457,0,0,1,5.3-2.4c1.1,0,.4,4.2-1.1,7.3-3.3,6.5-8.2,9.9-16.4,11.1s-12.1,5.5-9.6,10.5c4.4,8.4,19.2,5.3,31.7-6.6a36.84,36.84,0,0,0,8.5-11.6l2.9-6.2.3-33.3.3-33.3-3-2.9c-3.8-3.9-5.6-3.8-9.7.6l-3.4,3.5-6.2-3C968.16,95,959.56,94,952.86,95.92Zm19,16.7c14.4,7.4,14.3,31.8-.2,38.9-8.1,3.9-20.6,2.4-26.7-3.2-8.4-7.8-8.1-24.8.7-33,6.1-5.8,17.8-7,26.2-2.7Z" fill="#00a9e0"/>
      <path id="Tracé_16" data-name="Tracé 16" d="M1033.76,96c-10.3,2.7-20.8,11.9-25.7,22.4-2.2,4.7-2.7,7.1-2.7,13.7,0,7.1.4,8.9,3.3,14.7,9.2,18.8,30.1,27.2,47.4,19.1,7-3.3,14.8-10,14.8-12.7,0-2.2-5.3-7.6-7.5-7.6-1,0-4,1.7-6.8,3.8-4.8,3.4-5.7,3.7-13.2,4-6.9.3-8.6,0-12.5-2.1-4.4-2.3-9-7.6-9-10.3,0-1.1,4.8-1.4,25.8-1.4h25.8l2.9-3c1.9-2,2.8-3.9,2.7-6-.4-15.4-12.9-30.3-28.7-34.5C1043.36,94.32,1040,94.32,1033.76,96Zm14.1,14.7c5.9,1.3,10.4,4.5,12.9,9a18.469,18.469,0,0,1,2.1,4.3c0,.3-9.2.6-20.5.6-18.4,0-20.5-.2-20.5-1.7,0-2.4,4.7-8.1,8.3-10,6.2-3.18,10.9-3.78,17.7-2.18Z" fill="#00a9e0"/>
    </g>
  </g>
</svg>
